Επώνυμο;Όνομα;Τηλέφωνο;e-mail;Ιδιότητα;Κωδικός_Υ_Πελάτη
ΤΑΡΑΣΙΔΗΣ;ΣΠΥΡΟΣ;6979 055995;;Διευθυντής;4
ΛΑΖΑΡΙΔΗΣ;ΛΑΖΑΡΟΣ 2310 291146;6945 432431;lazaridis@ultravision.gr;;1509
ΑΜΑΝΑΤΙΔΗΣ;ΧΑΡΑΛΑΜΠΟΣ;6946 160733;camanatidis@camark.gr;Γενικός Διευθυντής;2757
ΤΑΜΟΥΤΣΙΔΗΣ;ΦΙΛΙΠΠΟΣ;23410 28867;;;1471
ΚΑΛΟΓΕΡΙΔΟΥ;ΜΑΡΙΑ;24580 (117 & 309);mkalogeridou@ccikilkis.gr;Υπεύθυνη ΕΤΕΑΚ;726
ΗΛΙΑΔΗΣ;ΓΙΩΡΓΟΣ;20928 (102);iliadisg@ccikilkis.gr;Διευθυντής;726
ΛΟΓΔΑΝΙΔΗΣ;ΓΙΩΡΓΟΣ;76707 (συνεργειο);info@logdanidis.gr;;17
ΝΤΙΓΚΛΙΔΗΣ;ΓΙΩΡΓΟΣ;6944 270655;6980 181057;;1285
;ΧΑΡΗΣ;6973 667936;ksenitidisx@gmail.com;;1100
ΧΑΝΟΖΙΔΗΣ;ΘΩΜΑΣ;6945 798754;;;87
ΒΙΟΛΙΤΖΗΣ;ΤΑΣΟΣ;6978 116171;tasosviolitzis@gmail.com;;1400
ΜΠΟΥΡΜΠΟΥΚΗΣ;ΝΙΚΟΣ;6987 682489;;;6
ΜΠΙΚΟΣ;ΓΙΩΡΓΟΣ (ΠΑΤΕΡΑΣ);6942 200860;gbik.kilkis@gmail.com;;1999
ΤΑΤΑΒΕΛΗΣ;ΑΠΟΣΤΟΛΟΣ;6972 576036;;;2218
ΓΡΗΓΟΡΙΑΔΗΣ;ΓΕΩΡΓΙΟΣ;2310 686970;info@digital-media.gr;;2268
ΠΙΠΕΡΙΔΗΣ;ΝΙΚΟΣ;6982 636076;piperidisnikos88@gmail.com;;2289
ΚΑΡΑΣΑΒΒΙΔΗΣ;ΔΗΜΗΤΡΗΣ;6979 428749;;;2294
ΝΙΚΟΛΑΪΔΗΣ;ΧΡΗΣΤΟΣ;6944 885296;christos_n@mushroomskechagia.com;Υπεύθυνος Εργοστασίου;2313
ΠΑΠΑΔΟΠΟΥΛΟΣ;ΗΛΙΑΣ σπιτι;2310 321528;iliasdesign@yahoo.gr;Ιδιοκτήτης;2186
;ΛΙΝΑ;24580 (121);grammateia@ccikilkis.gr;ΓΡΑΜΜΑΤΕΙΑ ΠΡΟΕΔΡΟΥ;726
ΠΑΠΑΔΟΠΟΥΛΟΣ;ΓΕΩΡΓΙΟΣ;6976 600369;creativeadaction@gmail.com;Ιδιοκτήτης;2474
BARBARELLA (ΑΡΙΣΤΟΤΕΛΟΥΣ-Β.ΗΡΑΚΛΕΙΟΥ 43);ΓΙΑΝΝΗΣ;6972 806880;;;2186
ΑΣΛΙΧΑΝΙΔΗΣ;ΠΑΝΤΕΛΗΣ;6930 404666;stoulari@gmail.com;;2064
ΙΩΑΝΝΙΔΟΥ;ΦΛΩΡENTIA;6970 225525;ioaflo@falconsecuritygs.gr;;1096
ΣΤΕΦΟΠΟΥΛΟΣ;ΑΛΕΞΑΝΔΡΟΣ;6941 425199;info@dioshop.eu;;2566
ΧΛΩΡΙΔΟΥ;ΚΛΕΙΩ;6986 894676;;ΚΟΡΗ;2131
ΤΖΙΩΛΑΣ;ΓΙΑΝΝΗΣ;εσωτερ.124;g.tziolas@souroti.gr;Υπευθυνος Προμηθειών;2422
ΣΥΜΕΩΝΙΔΟΥ;ΕΛΛΗ ΕΣΩΤ. 208;6974 051884;elli@bioagros.gr;ΓΡΑΦΙΣΤΡΙΑ;2618
ΙΩΣΗΦΙΔΟΥ;ΠΙΣΤΗ (2017);6936 536696;;;2760
ΔΑΡΤΣΗ;ΔΗΜΗΤΡΑ;6978 336533;;;2527
ΤΣΑΒΔΑΡΙΔΗΣ;ΚΩΝΣΤΑΝΤΙΝΟΣ;6948 222214;tsavdaridisk@portocarras.com;Γραφίστας;2647
ΤΣΑΒΔΑΡΙΔΗΣ;ΚΩΝΣΤΑΝΤΙΝΟΣ;6936 902724;tsavdaridisk@portocarras.com;Marketing;2772
ΕΥΦΡΑΙΜΙΔΟΥ;ΑΘΗΝΑ;6983 756114;athina.akritas@outlook.com;ΠΡΟΕΔΡΟΣ 2017;642
ΧΟΥΡΔΑΚΗΣ;ΜΙΧΑΛΗ;;;;2273
ΤΣΙΦΟΥΤΗΣ;ΝΕΚΤΑΡΙΟΣ;6979 910820;;;1274
ΤΖΙΒΑΝΙΔΟΥ;ΦΩΤΕΙΝΗ;23410 72164 (εσωτ. 251);photini.t@eurimac.gr;;1823
ΠΑΤΣΙΟΥΡΑΣ;ΓΙΩΡΓΟΣ;2341 400848;info@melikarpos.gr;;210
ΤΣΑΠΑΝΙΔΗΣ;ΝΤΙΝΟΣ;6946 461225;tsapanidiswin@yahoo.gr;Ιδιοκτήτης;289
ΙΩΑΝΝΙΔΟΥ;ΦΛΩΡΕΝΤΙΑ;6970 225525;ioaflo@falconsecuritygs.gr;;2829
ΗΛΙΑΔΟΥ;ΚΑΤΕΡΙΝΑ;6979 852294;;ΔΑΣΚΑΛΑ;2831
ΦΛΩΡΟΣ;ΓΙΩΡΓΟΣ;6944 266563;;;2838
ΤΡΙΑΝΤΑΦΥΛΛΙΔΗΣ;ΓΙΩΡΓΟΣ;6971962928;giorgosxarilaou3@gmail.com;Ιδιοκτήτης;2840
ΚΟΥΝΔΟΥΡΑΣ;ΚΩΣΤΑΣ;6937 025567;;;2648
ΚΑΡΤΣΟΓΛΟΥ;ΘΑΝΟΣ;6944 642266;thanos@seagull-works.gr;Ιδιοκτήτης;2800
ΤΑΓΚΑΛΙΔΗΣ;ΤΑΣΟΣ;6974 233837;;(KEFALAIO);849
ΣΑΡΙΔΗΣ;ΒΑΓΓΕΛΗΣ;6946 535653;;ΣΥΖΥΓΟΣ;1741
ΤΑΓΚΑΛΙΔΗΣ;ΓΙΩΡΓΟΣ;6936 430287;;(HARDWARE);849
ΣΑΚΑΡΙΔΗΣ;ΚΩΝΣΤΑΝΤΙΝΟΣ;;konsak@me.com;Ιδιοκτήτης;1352
;ΜΑΡΙΑ (ΤΟΥ ΣΕΒΟΥ);23410 22220;;ΚΔΑΠ;1515
ΗΛΙΟΠΟΥΛΟΣ;ΑΛΕΚΟΣ;6955 257481;alekostaboo@gmail.com;;2888
ΓΛΥΜΙΤΣΑΣ;ΓΡΗΓΟΡΗΣ;6974 289740;grigoris.vsoffice@gmail.com;Ιδιοκτήτης;2891
ΗΛΙΑΔΗΣ;ΜΑΝΩΛΗΣ;6948 865672;hliadismanolis94@gmail.com;;2774
ΚΑΠΕΤΑΝΑΚΗΣ;ΓΙΩΡΓΟΣ;6947 000286;george.kapetanakis@sonoco-alcore.net;;1928
ΗΛΙΑΔΗΣ;ΜΑΝΩΛΗΣ;6984 865672;hliadismanolis94@gmail.com;;2444
ΣΑΒΒΙΔΗΣ;ΓΙΩΡΓΟΣ;6948 078059;;Πρόεδρος;2909
ΑΜΠΔΑΡΜΑΝΗ;ΒΙΟΛΕΤΤΑ;6946 187058;vabdarmani@camark.gr;Production Manager;2757
ΤΣΙΓΓΙΑΒΟΥΡΙΔΗΣ;ΛΕΥΤΕΡΗΣ;6949 196239;ltsigiav@camark.gr;Γραφίστας;2757
ΚΑΡΑΒΑΝΑ;ΚΑΤΕΡΙΝΑ;6946 333671;kkaravana@camark.gr;Υπεύθυνη Παραγωγής;2757
